…
         p25      p50      p75   p100 hist 
 1 154527    190248   216524   455770 ▆▇▁▁▁
 2     44.5      82      127      174 ▇▇▇▇▇
 3     45        89      133      178 ▇▇▇▇▇
 4     47        93      137      187 ▇▇▇▇▇
 5     30.8      62       92      122 ▇▇▇▇▆
 6     31.5      60       89.5    122 ▇▇▇▆▇
 7     13.5      26       38       48 ▇▆▇▅▇
 8      7        13       19       25 ▇▅▇▇▇
 9      7        13       19       25 ▇▇▇▇▇
10      6.5      13       19.8     25 ▇▇▇▇▇
11      4.25      7.5     10.8     11 ▅▃▃▃▇
12      3.5       6.5      9        9 ▅▂▂▃▇
> ds
# A tibble: 361 × 41
   Colle…¹ State IPEDS…² `2023` `2022` `2021` `2020` `2019` `2018` `2017`
   <chr>   <chr>   <dbl> <chr>  <chr>  <chr>  <chr>  <chr>  <chr>  <chr> 
 1 Willia… MA     168342 1      1      1      1      1      1      1     
 2 Amhers… MA     164465 2      2      2      2      2      2      2     
 3 Pomona… CA     121345 3      4      4      5      5      6      7     
 4 Swarth… PA     216287 4      3      3      3      3      3      4     
 5 Welles… MA     168218 5      5      4      3      3      3      3     
 6 Bowdoi… ME     161004 6      6      6      6      5      3      6     
 7 Carlet… MN     173258 6      9      9      7      5      8      7     
 8 United… MD     164155 6      6      6      17     22     21     12    
 9 Clarem… CA     112260 9      8      6      7      9      8      9     
10 United… NY     197036 9      11     15     21     18     12     19    
# … with 351 more rows, 31 more variables: `2016` <dbl>, `2015` <dbl>,
#   `2014` <chr>, `2013` <chr>, `2012` <chr>, `2011` <dbl>,
#   `2010` <dbl>, `2009` <dbl>, `2008` <chr>, `2007` <chr>,
#   `2006` <chr>, `2005` <chr>, `2004` <chr>, `2003` <chr>,
#   `2002` <dbl>, `2001` <chr>, `2000` <chr>, `1999` <chr>,
#   `1998` <chr>, `1997` <chr>, `1996` <chr>, `1995` <chr>,
#   `1994` <chr>, `1993` <chr>, `1992` <chr>, `1991` <chr>, …
# ℹ Use `print(n = ...)` to see more rows, and `colnames()` to see all variable names
> ds %>%
+     gather(key="Year",value="Ranking",`2023`:`1984`)
# A tibble: 13,718 × 5
   `College Name`                 State `IPEDS ID` Year  Ranking
   <chr>                          <chr>      <dbl> <chr> <chr>  
 1 Williams College               MA        168342 2023  1      
 2 Amherst College                MA        164465 2023  2      
 3 Pomona College                 CA        121345 2023  3      
 4 Swarthmore College             PA        216287 2023  4      
 5 Wellesley College              MA        168218 2023  5      
 6 Bowdoin College                ME        161004 2023  6      
 7 Carleton College               MN        173258 2023  6      
 8 United States Naval Academy    MD        164155 2023  6      
 9 Claremont McKenna College      CA        112260 2023  9      
10 United States Military Academy NY        197036 2023  9      
# … with 13,708 more rows
# ℹ Use `print(n = ...)` to see more rows
> ds %>%
+ mutate(Year=as.numeric(Year))
# A tibble: 13,718 × 5
   `College Name`                 State `IPEDS ID`  Year Ranking
   <chr>                          <chr>      <dbl> <dbl> <chr>  
 1 Williams College               MA        168342  2023 1      
 2 Amherst College                MA        164465  2023 2      
 3 Pomona College                 CA        121345  2023 3      
 4 Swarthmore College             PA        216287  2023 4      
 5 Wellesley College              MA        168218  2023 5      
 6 Bowdoin College                ME        161004  2023 6      
 7 Carleton College               MN        173258  2023 6      
 8 United States Naval Academy    MD        164155  2023 6      
 9 Claremont McKenna College      CA        112260  2023 9      
10 United States Military Academy NY        197036  2023 9      
# … with 13,708 more rows
# ℹ Use `print(n = ...)` to see more rows
> ds %>% 
+     mutate(Year=as.numeric(Year),Ranking=as.numeric(Year))
# A tibble: 13,718 × 5
   `College Name`                 State `IPEDS ID`  Year Ranking
   <chr>                          <chr>      <dbl> <dbl>   <dbl>
 1 Williams College               MA        168342  2023    2023
 2 Amherst College                MA        164465  2023    2023
 3 Pomona College                 CA        121345  2023    2023
 4 Swarthmore College             PA        216287  2023    2023
 5 Wellesley College              MA        168218  2023    2023
 6 Bowdoin College                ME        161004  2023    2023
 7 Carleton College               MN        173258  2023    2023
 8 United States Naval Academy    MD        164155  2023    2023
 9 Claremont McKenna College      CA        112260  2023    2023
10 United States Military Academy NY        197036  2023    2023
# … with 13,708 more rows
# ℹ Use `print(n = ...)` to see more rows
> ds = ds %>% 
+     mutate(Year=as.numeric(Year),Ranking=as.numeric(Ranking),State=factor(State))
Warning message:
Problem while computing `Ranking = as.numeric(Ranking)`.
ℹ NAs introduced by coercion 
> ds %>%
+     filter(State='OR')
Error in `filter()`:
! We detected a named input.
ℹ This usually means that you've used `=` instead of `==`.
ℹ Did you mean `State == "OR"`?
Run `rlang::last_error()` to see where the error occurred.
> ds %>%
+     filter(State=='OR')
# A tibble: 190 × 5
   `College Name`          State `IPEDS ID`  Year Ranking
   <chr>                   <fct>      <dbl> <dbl>   <dbl>
 1 Reed College            OR        209922  2023      72
 2 Willamette University   OR        210401  2023      76
 3 Lewis and Clark College OR        209056  2023      94
 4 Linfield College        OR        209065  2023     120
 5 Warner Pacific College  OR        210304  2023      NA
 6 Reed College            OR        209922  2022      62
 7 Willamette University   OR        210401  2022      71
 8 Lewis and Clark College OR        209056  2022      82
 9 Linfield College        OR        209065  2022     117
10 Warner Pacific College  OR        210304  2022      NA
# … with 180 more rows
# ℹ Use `print(n = ...)` to see more rows
…
  
------- IN CLASS ACTIVITY -------

> choc = read_csv("chocolate2.txt")
Rows: 1795 Columns: 11                                                                                      
── Column specification ─────────────────────────────────────────────────
Delimiter: ","
chr (7): company, barName, companyLocation, beanType, broadBeanOrigin...
dbl (4): REF, reviewDate, cocoaPercent, rating

ℹ Use `spec()` to retrieve the full column specification for this data.
ℹ Specify the column types or set `show_col_types = FALSE` to quiet this message.
> choc
# A tibble: 1,795 × 11
   company  barName    REF revie…¹ cocoa…² compa…³ rating beanT…⁴ broad…⁵
   <chr>    <chr>    <dbl>   <dbl>   <dbl> <chr>    <dbl> <chr>   <chr>  
 1 A. Morin Agua Gr…  1876    2016    0.63 FRANCE    3.75 NA      SAO TO…
 2 A. Morin Kpime     1676    2015    0.7  FRANCE    2.75 NA      TOGO   
 3 A. Morin Atsane    1676    2015    0.7  FRANCE    3    NA      TOGO   
 4 A. Morin Akata     1680    2015    0.7  FRANCE    3.5  NA      TOGO   
 5 A. Morin Quilla    1704    2015    0.7  FRANCE    3.5  NA      PERU   
 6 A. Morin Carenero  1315    2014    0.7  FRANCE    2.75 Criollo VENEZU…
 7 A. Morin Cuba      1315    2014    0.7  FRANCE    3.5  NA      CUBA   
 8 A. Morin Sur del…  1315    2014    0.7  FRANCE    3.5  Criollo VENEZU…
 9 A. Morin Puerto …  1319    2014    0.7  FRANCE    3.75 Criollo VENEZU…
10 A. Morin Pablino   1319    2014    0.7  FRANCE    4    NA      PERU   
# … with 1,785 more rows, 2 more variables: SouthAmericaCo <chr>,
#   SouthAmericaBeans <chr>, and abbreviated variable names ¹​reviewDate,
#   ²​cocoaPercent, ³​companyLocation, ⁴​beanType, ⁵​broadBeanOrigin
# ℹ Use `print(n = ...)` to see more rows, and `colnames()` to see all variable names
…
── Variable type: numeric ───────────────────────────────────────────────
  skim_variable n_missing complete_rate     mean       sd      p0     p25
1 REF                   0             1 1036.    553.        5     576   
2 reviewDate            0             1 2012.      2.93   2006    2010   
3 cocoaPercent          0             1    0.717   0.0632    0.42    0.7 
4 rating                0             1    3.19    0.478     1       2.88
      p50     p75 p100 hist 
1 1069    1502    1952 ▆▆▇▇▇
2 2013    2015    2017 ▃▃▆▆▇
3    0.7     0.75    1 ▁▁▇▁▁
4    3.25    3.5     5 ▁▂▇▆▁
> choc %>% group_by(rating)
# A tibble: 1,795 × 11
# Groups:   rating [13]
   company  barName    REF revie…¹ cocoa…² compa…³ rating beanT…⁴ broad…⁵
   <chr>    <chr>    <dbl>   <dbl>   <dbl> <chr>    <dbl> <chr>   <chr>  
 1 A. Morin Agua Gr…  1876    2016    0.63 FRANCE    3.75 NA      SAO TO…
 2 A. Morin Kpime     1676    2015    0.7  FRANCE    2.75 NA      TOGO   
 3 A. Morin Atsane    1676    2015    0.7  FRANCE    3    NA      TOGO   
 4 A. Morin Akata     1680    2015    0.7  FRANCE    3.5  NA      TOGO   
 5 A. Morin Quilla    1704    2015    0.7  FRANCE    3.5  NA      PERU   
 6 A. Morin Carenero  1315    2014    0.7  FRANCE    2.75 Criollo VENEZU…
 7 A. Morin Cuba      1315    2014    0.7  FRANCE    3.5  NA      CUBA   
 8 A. Morin Sur del…  1315    2014    0.7  FRANCE    3.5  Criollo VENEZU…
 9 A. Morin Puerto …  1319    2014    0.7  FRANCE    3.75 Criollo VENEZU…
10 A. Morin Pablino   1319    2014    0.7  FRANCE    4    NA      PERU   
# … with 1,785 more rows, 2 more variables: SouthAmericaCo <chr>,
#   SouthAmericaBeans <chr>, and abbreviated variable names ¹​reviewDate,
#   ²​cocoaPercent, ³​companyLocation, ⁴​beanType, ⁵​broadBeanOrigin
# ℹ Use `print(n = ...)` to see more rows, and `colnames()` to see all variable names
> choc %>% group_by(companyLocation)
# A tibble: 1,795 × 11
# Groups:   companyLocation [60]
   company  barName    REF revie…¹ cocoa…² compa…³ rating beanT…⁴ broad…⁵
   <chr>    <chr>    <dbl>   <dbl>   <dbl> <chr>    <dbl> <chr>   <chr>  
 1 A. Morin Agua Gr…  1876    2016    0.63 FRANCE    3.75 NA      SAO TO…
 2 A. Morin Kpime     1676    2015    0.7  FRANCE    2.75 NA      TOGO   
 3 A. Morin Atsane    1676    2015    0.7  FRANCE    3    NA      TOGO   
 4 A. Morin Akata     1680    2015    0.7  FRANCE    3.5  NA      TOGO   
 5 A. Morin Quilla    1704    2015    0.7  FRANCE    3.5  NA      PERU   
 6 A. Morin Carenero  1315    2014    0.7  FRANCE    2.75 Criollo VENEZU…
 7 A. Morin Cuba      1315    2014    0.7  FRANCE    3.5  NA      CUBA   
 8 A. Morin Sur del…  1315    2014    0.7  FRANCE    3.5  Criollo VENEZU…
 9 A. Morin Puerto …  1319    2014    0.7  FRANCE    3.75 Criollo VENEZU…
10 A. Morin Pablino   1319    2014    0.7  FRANCE    4    NA      PERU   
# … with 1,785 more rows, 2 more variables: SouthAmericaCo <chr>,
#   SouthAmericaBeans <chr>, and abbreviated variable names ¹​reviewDate,
#   ²​cocoaPercent, ³​companyLocation, ⁴​beanType, ⁵​broadBeanOrigin
# ℹ Use `print(n = ...)` to see more rows, and `colnames()` to see all variable names
> choc %>% group_by(companyLocation) %>%
+ summarize(n=n())
# A tibble: 60 × 2
   companyLocation     n
   <chr>           <int>
 1 AMSTERDAM           4
 2 ARGENTINA           9
 3 AUSTRALIA          49
 4 AUSTRIA            26
 5 BELGIUM            40
 6 BOLIVIA             2
 7 BRAZIL             17
 8 CANADA            125
 9 CHILE               2
10 COLOMBIA           23
# … with 50 more rows
# ℹ Use `print(n = ...)` to see more rows
…
